@startuml
--->"carTime:ButtonGroupButton":OnClick
activate "carTime:ButtonGroupButton"

    "carTime:ButtonGroupButton"--->"carObserver:DensityButtonGroupObserver":SetState(carTime)
    activate "carObserver:DensityButtonGroupObserver"

        loop for b from Buttons
            
            alt b!=CarTime
                "carObserver:DensityButtonGroupObserver" ---> "b:ButtonGroupButton":color=ColorBlock.defaultColorBlock
            end 
        end
        
        "carObserver:DensityButtonGroupObserver"--->"carTime:ButtonGroupButton":color="grey"

        alt ObserverState changed
            
            "carObserver:DensityButtonGroupObserver"--->"carObserver:DensityButtonGroupObserver":Update
            activate "carObserver:DensityButtonGroupObserver"

                "carObserver:DensityButtonGroupObserver"--->"controller:MainMenuController":SetCarDensity(Density.TIME)
                activate "controller:MainMenuController"

                    "controller:MainMenuController"--->"textManager:TextManager":SetText(car,time-dependent)
                    activate "textManager:TextManager"

                        "textManager:TextManager"--->"car:Label":text=time-dependent

                    return                
                return
            return
        end
        return
return

        

@enduml
