@startuml
note "This is a state diagramm for an elevator" as GH
hide empty members
[*] --> CurrentFloorDoorsOpen

CurrentFloorDoorsOpen --> CurrentFloorDoorsClosed : TIME_UNTILL_DOORS_CLOSED countdown is finished
CurrentFloorDoorsClosed --> CurrentFloorDoorsOpen : Floorbutton outside of elevator is pressed 

CurrentFloorDoorsOpen --> MovingToNewFloor : movementQueue is not empty AND countdown of TIME_UNTILL_NEXT_MOVE and TIME_UNTILL_DOORS_CLOSED is finished
CurrentFloorDoorsClosed --> MovingToNewFloor : movementQueue is not empty AND countdown of TIME_UNTILL_NEXT_MOVE is finished
MovingToNewFloor --> CurrentFloorDoorsOpen : Elevator has arrived at new Floor
@enduml
