﻿@startuml
'https://plantuml.com/class-diagram

skinparam packageStyle rectangle
skinparam linetype ortho
package MainMenu{
    package Model{
    }
    package View{
    }
    package Controller{
    }
}


package Movement{
}

Movement ..> MainMenu.Model


package TrafficControl{
    package Model {
    }
    package Vehicles  {
    } 
    package Tracks {
    }
}

package AgentsControl {
    package Agents{
    }
}
AgentsControl ..> MainMenu.Model

package Schedule{
}
Schedule ..> MainMenu.Model

package TimeManaged{
}
TimeManaged ..> MainMenu.Model
package TrafficLightsCoordination{
}

TrafficControl ..> TrafficLightsCoordination

package ElevatorManagement{
}
package EscalatorManagement{
}
package SosPoleManagement{
}


TrafficControl ..> Schedule
AgentsControl ..> Schedule
TrafficControl ..> MainMenu.Model

@enduml