@startuml
hide empty members


    object "startButton:StartButton" as StartButton

    object "slider:Slider" as Slider

    object "timeCar:ButtonGroupButton" as TimeCar

    object "lessCar:ButtonGroupButton" as LessCar

    object "mediumCar:ButtonGroupButton" as MediumCar

    object "highCar:ButtonGroupButton" as HighCar

    object "timeNPC:ButtonGroupButton" as TimeNPC

    object "lessNPC:ButtonGroupButton" as LessNPC

    object "mediumNPC:ButtonGroupButton" as MediumNPC

    object "highNPC:ButtonGroupButton" as HighNPC

    object "leadedOn:ButtonGroupButton" as LeadedOn

    object "leadedOff:ButtonGroupButton" as LeadedOff

    object "time:Label" as Time

    object "npc:Label" as NPC

    object "car:Label" as Car

    object "mode:Label" as Mode
    
    

   
  


object "controller:MainMenuController" as Controller

object "textManager:TextManager" as TextManager
    
object "leadedButtonGroup:LeadedButtonGroup" as LeadedButtonGroup

    object "densityButtonGroupCar:DensityButtonGroup" as DensityButtonGroupCar

    object "densityButtonGroupNPC:DensityButtonGroup" as DensityButtonGroupNPC




    object "configuration:SceneConfiguration" as SceneConfiguration

    object "logger:Logger" as Logger




TimeCar---"DensityButtonGroupCar"
LessCar---"DensityButtonGroupCar"
MediumCar---"DensityButtonGroupCar"
HighCar---"DensityButtonGroupCar"

TimeNPC---"DensityButtonGroupNPC"
LessNPC---"DensityButtonGroupNPC"
MediumNPC---"DensityButtonGroupNPC"
HighNPC---"DensityButtonGroupNPC"

LeadedOn---"LeadedButtonGroup"
LeadedOff---"LeadedButtonGroup"

TextManager--->NPC
TextManager--->Mode
TextManager--->Time
TextManager--->Car

"DensityButtonGroupCar"---Controller
"DensityButtonGroupNPC"---Controller
"LeadedButtonGroup"--->Controller

Controller--->TextManager

Controller--Slider

StartButton-->Controller

Controller-->SceneConfiguration

Controller-->Logger

@enduml
